<?xml version="1.0" encoding="utf-8"?>
<!-- Generator: Adobe Illustrator 26.5.0, SVG Export Plug-In . SVG Version: 6.00 Build 0)  -->
<svg version="1.1" id="Ebene_1" xmlns="http://www.w3.org/2000/svg" xmlns:xlink="http://www.w3.org/1999/xlink" x="0px" y="0px"
	 viewBox="0 0 32 32" style="enable-background:new 0 0 32 32;" xml:space="preserve">
	<style>
	.mail-theme-background {
		fill: #0078e6;
		fill:var(--mail-background-color, #0078e6);
	}
	.mail-theme-color {
		fill:var(--mail-color, #ffffff);
	}
	</style>
<rect class="mail-theme-background" width="32" height="32"/>
<g>
	<path class="mail-theme-color" d="M7,16c0-5,4-9,9-9v9h9c0,5-4,9-9,9S7,21,7,16z"/>
	<path class="mail-theme-color" d="M18.2,7.3c3.2,0.8,5.6,3.3,6.5,6.5h-6.5V7.3z"/>
</g>
</svg>
